aboutus | About Us | من نحن 
terms | Terms & Conditions | الأحكام والشروط 
policy | Privacy Policy | الخصوصية 
career | Career with us | اعمل معنا 
sitemap | Sitemap | خريطة الموقع 
contactus | Tickets | اتصل بنا 
faqs | FAQ | أسئلة متكررة 
jobseekers | Jobseekers | الباحثون عن عمل 
registernow | Register Now | سجل الآن 
searchjob | Search Jobs | ابحث عن عمل 
createjobalerts | Create Job Alert | إنشاء تنبيه وظيفي 
reportproblem | Report a Problem | بلغ عن مشكلة 
blogs | Blogs | المدونات 
securityavice | Security Advice | نصيحة أمنية 
postjobs | Post Jobs | أعلن عن وظائف 
accessdb | Access Database | الوصول إلى قاعدة بيانات 
manage_response | Manage Responses | إدارة الردود 
buy_online | Buy Online | الشراء عبر الانترنت 
support | Support | الدعم 
live_chat | Live Chat | دردشة مباشرة 
help_centre | Help Centre | مركز المساعدة 
phone_us | Phone Us | اتصل بنا 
download_app | Download App | حمل التطبيق 
login | Login | تسجيل الدخول 
baner1_title | Latest Smart Platforms for Partial Free Work | أحدث المنصات الذكية للعمل بالوقت الجزئي الحر 
banner1_body | Anytime, anywhere and with the fare that suits you best | في أي مكان وبالأجر الذي يناسبك 
banne_btn | Learn More | أعرف أكثر 
baner2_title | Your smart platform to hire qualified | منصتك الذكية لتوظيف المهنيين المؤهلين 
banner2_body | At any time and without any additional obligations | في أي وقت ودون أي التزامات إضافية 
baner3_title | We help you to choose the free partial work | نحن نساعدك على اختيار العمل الجزئي الحر 
banner3_body | At the time that suits you and in the place that suits you, and the salary you deserve | وبالراتب الذي تستحقه 
most_popular | MOST POPULAR JOBS | الأعمال الأكثر شعبية 
most_popular_sub | Find the most required jobs below | ابحث عن أكثر الوظائف المطلوبة أدناه 
jobs_of | 1000s of Jobs | آلاف الوظائف 
find_the_one | Choose what suits you and suit your skills | ابحث عن الأنسب لك 
jobs_of_sub | Find the right job that fits your skills | اعثر على الوظيفة التي تناسب مهاراتك 
hire_people_content | Hire the top employees from all over the world for your job. | قم بتوظيف أفضل المتخصصين 
connect_business | Connecting businesses with the right freelance, contact and part-time professionals. | قم بالتواصل مع أفضل المتخصصين 
its_match | It's a Match | انها فعلاً منافسة . 
connect_hire | Connect and Hire | اتصل وشغل 
connect_hire_content | Hire a top worker and start your work. | قم بتوظيف أفضل المتخصصين وابدأ عملك 
certified_content | We will verify all the documents provided by the employee to ensure the authenticity. | سوف نتحقق من جميع الوثائق المقدمة من قبل الموظفين للتأكد من صحتها. 
insure_work_content | We will help you to clear disputes and make sure the works are getting done. | سنساعدك على حل النزاعات الطارئة والتأكد من إنجاز أعمالك. 
satisfaction_guaranteed_content | Your satisfaction is our success. | رضاكم هو نجاحنا 
on_time_arrival_content | Our applications and traking system make sure works are getting done on time | تطبيقاتنا ونظام التببع الخاص بها تقوم بالتأكد من إنجاز العمل في الوقت المحدد 
certified | Certified Professional | محترف مؤهل و معتمد 
insure_work | Insured Work | ضمان العمل 
satisfaction_guaranteed | Satisfaction Guaranteed | رضاكم هو نجاحنا 
on_time_arrival | On Time Arrival | الوصول في الوقت المحدد 
login_uppartime | Login to Upparttime.com | الدخول في باب كريم 
companies | Companies | شركات 
of_jobs | of jobs | من الوظائف 
employee | Employee | العامل 
employer | Emplloyer | صاحب العمل 
informations | Information | معلومات 
post_your_job | Post Your Jobs | حدد أعمالك 
post_your_job_content | Post a job to tell us about your project. We'll quickly match you with the right job seekers. | سجل العمل الذي تريد استئجار العامل عليه . وسنقوم بسرعة على ربطك مع الباحثين عن العمل المناسبين 
register_for_job | Register For a Job | التسجيل للحصول على عمل جزئي 
hire_people | Hire the right employees from all over the world for your job. | وظف الموظفين المناسبين من جميع أنحاء العالم لعملك 
find_them | Find them here. | اعثر عليهم هنا. 
reagister_new_user | Register New User | تسجيل مستخدم جديد 
name | Name | الإسم 
first_name | First Name | الإسم الأول 
middle_name | Middle Name | الإسم الأوسط 
last_name | Last Name | الإسم الأخير 
email | Email | البريد الألكتروني 
email_placeholder | you@example.com | you@example.com 
mobile_no | Mobile No | رقم الجوال / الموبايل 
user_name | Username | اسم المستخدم 
password | Password | الرقم السري 
confirm_password | Confirm Password | أكد الرقم السري 
i_want_to_work | I Want to Work | أبحث عن عمل 
i_want_to_hire | I Want to Hire | أبحث عن عاملين 
register | Register | تسجيل 
welcome_to_up_parttime | Welcome to Upparttime | مرحباً بك في Babkrim باب كريم 
welcome_heading2 | If you want to take advantage of overtime opportunities, you must register the following information to obtain a registration number on the platform and let empoloyers recognize you for your selection | إذا كنت ترغب في الاستفادة من فرص العمل الجزئي ، فيجب عليك تسجيل المعلومات التالية للحصول على رقم تسجيل على منصه Babkrim إذا كنت ترغب في الاستفادة من فرص العمل الجزئي ، فيجب عليك تسجيل المعلومات التالية للحصول على رقم تسجيل على منصه Babkrim وتتيح الفرصة أمام أصحاب العمل للتعرف عليك و اخنيارك .. 
title_email_verify_message | Hi, just a reminder that to access all the features of Upparttime, you'll need to | مرحباً ، فقط نود التذكير بأنه للوصول إلى جميع مزايا باب كريم ، فسوف يتم 
verify_email_address | verify your email address. | التحقق من عنوان بريدك الإلكتروني 
add_company_details | ADD COMPANY DETAILS | أضف تفاصيل الشركة 
add_manager_details | ADD MANAGER DETAILS | أضف تفاصيل عن المدير 
add_personal_details | ADD PERSONAL INFORMATION | أضف معلومات شخصية 
step_1 | step 1 | الخطوة 1 
company_name | Company Name | اسم الشركة 
country | Country | الدولة 
state | State | الولاية / المنطقة 
city | City | المدينة 
company_website | Company Website | الموقع الإلكتروني للشركة 
company_email | Company Email | البريد الإلكتروني للشركة 
company_phone_no | Company Phone No | رقم هاتف الشركة 
zip_code | Zip Code | الرمز البريدي 
p_o_box | P.O Box | رقم صندوق البريد 
upload_the_registry_and_licenses | Upload the Registry and Licenses | حمَل السجل التجاري والتراخيص 

choose_file | Choose file | 
value2_upload_caption_the_registry_and_licenses | No file Choosen | لم يتم اختيار ملف 
next | Next | التالي 
previous | Previous | السابق 
submit | Submit | اعتمد 
about_your_company | About Your Company | عن شركتك 
manager_in_charge | Manager in Charge: | المدير المسئول 
position | Position | منصبه 
his_mobile_no | Mobile No | رقم جواله 
his_phone_no | Phone No | رقم تلفونه 
his_email | Email | عنوان بريده الألكتروني 
executive_manager_in_charge | Executive Manager in Charge: | المدير التنفيذي المسؤول: 
executive_manager | Executive Manager | المدير التنفيذي 
terms1 | I have read and agree to the | قرأت ووافقت على 
terms2 | terms and conditions | شروط وأحكام 

privacy | privacy | 
terms3 | Privacy and Cookies | الخصوصية وملفات تعريف الارتباط 
terms4 | I would like to participate on the map of part-time jobs | أود أن أشارك على خريطة وظائف جزء 
forgot_password | Forgot Password? | نسيت الرقم السري؟ 
howitwork | HOW IT WORKS | طريقة الاستخدام 
faq_content_main | Connecting businesses with the right freelance, contact and part-time professionals_ | 
search_your_jobs | Search Your Jobs | ابحث عن عمل 
search_your_jobs_content | You can search thousands of jobs online to find the next step in your career. With tools for job search | مع أدوات للبحث عن وظيفة، يمكنك البحث في آلاف الوظائف عبر الإنترنت للعثور على الخطوة التالية في حياتك المهنية. 
faq_content1 | Connecting businesses with the right employee, contact and part-time professionals_On Upparttime, you run your own business and choose your own clients and projects_Just complete your profile and we"ll highlight ideal jobs_Also search projects, and respond to client invitations_ | 
its_a_match | It's a Match | إنها فعلا منافسة 
its_a_match_content | Browse from thousands of profiles, interview top candidates.Use our web and mobile platform to chat, share files, and manage your work on the go. | nnb 
faq_content2 | Upparttime makes it easy to connect with clients and begin doing great work__Enjoy higher visibility with the added status of prestigious programs_ | يعمل Babkrim باب كريم على تسهيل التواصل مع جميع الأطراف والبدء في تنفيذ أعمال رائعة ؛ حيث يتمتع بمستوى راق ينافس البرامج المشابهة.. 
grab_your_job | Grab Your Job | انتهز الفرصة واستول على هذا العمل 
grab_your_job_content | Go and grab your job. Our map will direct you to the employer | هيا قم بحجز الوظيفة، خريطتنا ستدلك على مكان صاحب العمل 
faq_content3 | Connecting businesses with the right freelance, contact and part-time professionals_On Upparttime, you run your own business and choose your own clients and projects_Just complete your profile and we"ll highlight ideal jobs_Also search projects, and respond to client invitations_ | 
up_parttime | Upparttime.com | باب كريم 
search_jobs | Search Jobs | ابحث عن عمل 
choose_country | Choose Countries | اختر الدولة 
enter_your_city | Enter Your City | اكتب اسم مدينتك 
sign_up | Sign up | التسجيل 
find_jobs | Find Jobs | ابحث عن عمل 
part_time _list | Part Time List | قائمة العمل بالوقت الجزئي 
find_employee | Find Employees | ابحث عن عاملين 
new_parttime_worker | New Part-Time Workers (Non Urgent) | عاملون بالوقت الجزئي جدد ( غير مستعجل ) 
new_parttime_worker_urgent | New Part-Time Workers (Urgent) | عاملين بالوقت الجزئ جدد ( مستعجل ) 

new_parttime_worker1 | New Part-Time Workers | 

urgentjob | Urgent Job | 

non_urgent | Regular Job | 
new_applicant | New Applicants | باحث عن عمل جديد 
evaluation | Evaluation | التقييم 
announced_part_time_jobs | Announced Part Time Jobs | الوظائف ( بالعمل الجزئي ) المعلنة 
my_account | My Account | حسابي 
my_profile | My Profile | ملفي الشخصي 
nottification | Notification | إشعار 
report | Report | التقرير 
setting | Settings | الضبط 
logout | Logout | الخروج 
part_time_map | Part Time Map | خريطة باب كريم Babkrim 
edit_information | Edit Your Information | تعديل معلوماتك 
it_networking | IT & Networking | تقنية المعلومات / الشبكات 
human_medicine | Human Medicine | الطب البشري 
leagal | Legal | قانون 
web_mobile | Web & Mobile Dev. | تطوير الويب والهاتف المحمول 
it_ networking | IT & Networking | تقنية المعلومات والشبكات 
accounting | Accounting | محاسبة 
engineering | Engineering | الهندسة 
marketing | Marketing | التسويق 
design | Design | التصميم 
houses_building_maintenance | Houses & Building Maintenance | صيانة المباني 
all_categories | All Categories | جميع الفئات 
are_you_looking | Are you looking for someone to hire for part-time job? | هل تبحث عن شخص ما ليعمل لديك بوقت جزئي 
language | Language | اللغة 
welcome_to_the | Welcome to | مرحبا بك في 
register_new_user | Register New User | تسجيل مستخدم جديد 
employee/employer | Employee/Employer | عامل / صاحب عمل 
account_setup | Account Setup | اعدادات الحساب 
educational_setup | Educational Setup | إعداد التأهيل العلمي 
professional_ setup | Professional Setup | الإعداد المهني 
add_personal _information | Add Personal Information | أضف المعلومات الشخصية 
father_name | Last Name | الإسم الأخير 
gender | Gender | الجنس 
date_of_birth | Date of Birth | تاريخ الميلاد 
enter_otp_here | Enter OTP here | أدخل الرقم السري المتغير OTP 
enter_otp | Enter OTP | أدخل الرقم السري المتغير OTP هنا 
verify | Verify | التحقق 
r_send | Resend | إعادة إرسال 
resend_otp | Click to Resend OTP | نقر لإعادة إرسال OTP 
nationality | Nationality | الجنسية 
education _details | Your Education Details Here | هنا التفاصيل التعليمية الخاصة بك 
upload_photo | Upload Your Photo | حمل صورتك الشخصية 
mother_tongue | Mother Tongue | لغتك الأم 
id_type | Id Type | نوع الهوية 
id_no | Id No | رقم هويتك 
id_issue_date | ID Issue Date | تاريخ إصدار الهوية 
edu_last_level | Last Level of Education You Got | آخر مستوى تعليمي حصلت عليه 
college | College/School/Institute | كلية / مدرسة / معهد 
graduation_date | Course Completion Date | تاريخ التخرج 
general | General | عام 
specialization | Specialization | تخصص 
up_your_certificates | Upload Your Certificates | قم بتحميل الشهادات الخاصة بك 
other_you_speaks | Other Language You Speak | لغة أخرى تتحدثها 
r_w_level | Reading and Writing Level | مستوى القراءة والكتابة 
conversation_level | Conversation Level | مستوى المحادثة 
num_experience | Number of Years of Experience | سنوات الخبرة 
2_lang | 2nd Language You Speak | اللغة الثانية التي تتحدثها 
professional_setup | Professional Setup | الإعداد المهني 
add_professional_setup | Add Professional Setup | أضف إعداد المهنية 
about_your_job | About Your Job | بخصوص عملك 
previous_experience | Previous Experience | الخبرات السابقة 
up_exp_certificate | Upload Your Experience Certificates | حمل شهادات خبراتك السابقة 
disability | Do You Have Some Kind of Disability | هل لديك نوع من الإعاقة ؟ 
yes | Yes | نعم 
no | No | لا 
if_disability | If Yes, What Type of Disability | ما هو نوع الإعاقة 
type_disability | Type of Disability | نوع الإعاقة 
general_specialization | Category | التخصص العام 
more_specialization | Sub Category | اذكر التخصص الفرعي 
min_wages | The Minimum Hourly  Wages | أقل أجر تقبل به 
max_work | Max. Hours of Work Per Day | أكثر مدة ( بالساعات ) تستطيع العمل في اليوم 
min_work | Min. Hours of Work Per Day | أقل مدة ( بالساعات ) يمكنك القبول العمل في اليوم 
other_work | Do you accept to work in other than mentioned? | هل تقبل بالعمل في غير ما ذكر 
receive_message | Would you like to receive a message about the part-time work of your choice on your registered mobile phone (free-now) | * هل ترغب في أن تصلك رسالة في جوالك بأعمال الوقت الجزئي المتوفرة حسب اختياراتك امزيد من الإعدادات 
receive_voice | Would you like to receive a voice alert on your mobile when you approach a company that has part time job opportunities | هل ترغب في بالتنبيه الصوتي على جوالك عند اقترابك المكاني من الشركة التي فيها فرص عمل على مدى ؟؟؟؟ متراً (ً الآن ) مزيد من الإعدادات 
welcome | Welcome | مرحبا 
open_the | Open the | افتح ال 
part_time_list | Part Time List | قائمة الأعمال الجزئية 
part_time_map_open | Open the part-time map in my city | افتح خريطة الأعمال الجزئية المتاحة في مدينتي 
edit_term | Edit my information and terms | تحرير المعلومات والشروط الخاصة بي 
evaluate_wrk_done | Evaluation for part time work you have done. | تقييم العمل في الوقت الجزئي الذي قمت به 
faq_long1 | Connecting businesses with the right employee, contact and part-time professionals. On Upparttime, you run your own business and choose your own clients and projects. Just complete your profile and we’ll highlight ideal jobs. Also search projects, and respond to client invitations. | 
faq_long2 | Upparttime makes it easy to connect with clients and begin doing great work.. Enjoy higher visibility with the added status of prestigious programs. | تعمل Babkrim باب كريم على تسهيل التواصل الأطراف الأخرى والبدء في عمل رائع .. تمتع بمزيد من الرؤية مع البرامج المرموقة المضافة. 
how_to_find_job | How to find part time job | كيف تجد وظيفة بدوام جزئي 
faq_long3 | Connecting businesses with the right freelance, contact and part-time professionals. On Upparttime, you run your own business and choose your own clients and projects. Just complete your profile and we’ll highlight ideal jobs. Also search projects, and respond to client invitations. | 
faq_long4 | On Upparttime, you run your own business and choose your own clients and projects. Just complete your profile and we’ll highlight ideal jobs. | في Babkrim ، يمكنك إدارة أعمالك الخاصة واختيار عملاءك والمشاريع الخاصة بك. ما عليك سوى إكمال ملفك وسنسلط الضوء على الأعمال التي ترغب في التوظيف عليها. 
faq_long5 | On Upparttime, you run your own business and choose your own clients and projects. Just complete your profile and we’ll highlight ideal jobs. | على جزء من الوقت ، تقوم بتشغيل الأعمال التجارية الخاصة بك واختيار العملاء والمشاريع الخاصة بك. ما عليك سوى إكمال ملفك الشخصي وسنسلط الضوء على الوظائف المثالية 
chat_box | Group Chat | صندوق الدردشة 
send | Send | إرسال 
enter_category | Enter Category | أدخل الفئة 
details_job | Details of Job | تفاصيل العمل 
map_job | Job Location | خريطة مكان العمل 
part_time_job_list | Job List | قائمة وظائف ( عمل جزئي ) 
category | Category | الفئة 

distance_from_employers | Distance range from employers. | 
rating | Rating | التقييم 
job_title | Job Title | اسم الوظيفة 
job_type | Job Type: | نوع الوظيفنوع الوظيفة 
offline | Offline | العمل المباشر 
online | Online | العمل عبر الإنترنت ( عن بعد ) 
map_part_time_job | Map of Part Time Jobs . | خريطة الوظائف بدوام جزئي 
compony_map_details | Here name of the company and part time jobs avilable in it. | هنا اسم الشركة والوظائف المتاحة بدوام جزئي فيها 
go_grab_it | Go and Grab it | توكل على الله واحصل على عملك 
form_to_edit_information | Here is the form to edit your information. | هنا النموذج المعد لتعديل بياناتك. 
upload_prf_ic | Upload Your Profile Picture. | حمل صورتك الشخصية. 
manufacturing | Manufacturing | التصنيع 
sales_marketing | Sales and Marketing | المبيعات والتسويق 
customer_support | Customer Support | دعم العملاء 
transportation | Transportation | النقل 
general_labor | General Labor | العمالة العامة 
hotel_hospitality | Hotel Hospitality | الفندقة 
training | Training | التدريب 
collage | College | الكلية 
branch | Branch | الفرع 
neighborhood | Neighborhood | الحي 
street | Street | الشارع 
task_number | Task Number | رقم المهمة 
date_of_task | Date of task performance | تاريخ أداء المهمة 
type_of_work_same | Is the type of work as defined on the site or different | هل طبيعة العمل هي كما هي محددة في التطبيق أم تختلف 
treate_human | Have you been treated with the human treatment you deserve? | هل تمت معاملتك بما تستحقه من معاملة إنساني 
fully_paid | Have you been fully paid? | هل تم تسليمك جميع مستحقاتك ؟ 
conducive_to_overtime | Is the work environment conducive to overtime? | هل بيئة العمل تساعد على العمل الجزئي؟ 
again_work_with_them | Is you have the opportunity to work again, will you work with them? | إذا أتيحت لك فرصة للعمل فهل ستعمل معه مرة أخرى ؟ 
advise_others | Do you advise others to work with them? | تنصح الآخرين بالعمل معهم ؟ 
work_site_give_score | How much does the work site give a score of 10, giving him a score of 1 to 10, 1 for bad and 10 excellent? | 
rate_your_employer | Rate Your Employer | تقييم صاحب العمل الخاص بك 
have_comment | Do you have a comment? | هل لديك تعليق ؟ 
evaluate_ employee | Evaluate employee | قيم العامل 
connecting_ businesses | Connecting businesses with the right freelance, contact and part-time professionals. | 
how_search_your_jobs | Connecting businesses with the right employee, contact and part-time professionals. In Upparttime, you run your own business and choose your own clients and projects. | وظائف 
How _It_ match | Upparttime makes it easy to connect with clients and begin doing great work. Enjoy higher visibility with the added status of prestigious programs. | تعمل منصه باب كريم Babkrim على تسهيل التواصل مع العملاء والبدء في عمل رائع .. تمتع بمزيد من الرؤية مع اضافة وضع البرامج المميزه . 

how_grab your job | Connecting businesses with the right freelance, contact and part-time professionals. Upparttime, you run your own business and choose your own clients and projects. Just complete your profile and we’ll highlight ideal jobs. Also, search projects, and respond to client invitations. | 
how_ search_your_employee | On Upparttime you’ll find a range of top talent, from programmers to designers, writers, customer support reps, and more. | ستجد في بابكريم مجموعة من أفضل المواهب ، من المحامين إلى المبرمجين ، والمصممين ، والكتاب ، والمحاسب ، وممثلي دعم العملاء ، والمزيد. 
how_connect _ hire | Invite favorite candidates to submit bids, then review and hire your favorite. | ادعُ المرشحين المفضلين لإرسال عروض الأسعار ، ثم راجع مفضلاتك المفضلة واستخدمها. 
resend_email | Resend Email | إعادة إرسال البريد الإلكتروني 
verifying_email | Verifying Email | التحقق من بريدك الالكتروني 
plz_verify | Please Verify Your Email | يرجى التحقق من بريدك الالكتروني 
add _vacancy | Add Vacancy | أضف وظيفة ( عمل جزئي ) شاغرة 
Job_announced _our | Job Announced by Us | الوظائف ( عمل جزئي ) المعلنة من قبل شركتنا 
Enter_number_vacancy | Enter number of vacancy | أدخل عدد الوظائف الشاغرة 
company_ phone_ no | Company Phone No | رقم هاتف الشركة 
evaluate_employe | Evaluate the Employee | تقييم الموظف 

evaluate_employer | Evaluate the Employer | 
his_number | Number | رقمه 
date_task_performance | Date of task performance | تاريخ أداء المهمة 
done_the_job_perfectly | Did he/she done the job perfectly, giving him a score of 1 to 10, 1 for bad and 10 excellent. | هل أدى عمله المسند إليه بكفاءة، امنحه درجة من 10 بحيث 1 سيئ و10 ممتاز 
he_attend_time | Have he/she attend on time | هل حضر في الوقت المحدد 
he_left_on_time | Have he/she left on time | هل غادر العمل في الوقت المحدد 
rate_employee | Rate your employee | أجرة العامل 

rate_employer | Rate your employer | 
he_behaved_with_superiors | How he/she behaved with superiors and colleagues, giving him a score of 1 to 10, 1 for bad and 10 excellent | كيف كان تعامله مع رؤسائه وزملائه 
proposals | Proposals | العروض 
number_day | Number of Days | عدد الأيام 
from_time | From Time | من الساعة 
to_time | To Time | إلى الساعة 
no_hours | No. of Hours | عدد الساعات 
type_job | Type of Job | نوع العمل 
hour_fair | Hourly Fare | أجرة الساعة 
age_no_more | Age Less Than | لا يزيد العمر علىى 
age_no_less | Age More Than | لا يقل العمر عن 
weight_not_exceed | Weight Less Than | لا يتجاوز الوزن 
weight_not_less | Weight More Than | الوزن لا يقل عن 
length_not_less | Height More Than | لا يقل الطول عن 
length_not_more | Height Less Than | لا يزيد الطول على 
job_desc | Job Description | مواصفات العمل 
search_employee_post_job | Search your employee / Post your jobs | ابحث عن موظفك / انشر أعمالك 
how_search_your_employee | Are you a recruiter or employer looking to hire employees? Search for employees | هل أنت صاحب عمل تبحث عن عاملين تريد توظيفهم بالوقت الجزئي؟ ابحث عن عاملين 
maxexperience | Experience Less Than | سنوات الخبرة لا تكون أكثر من 
minexperience | Experience Not Less Than | سنوات الخبرة لا تقل عن 
date | Date | التاريخ 
postjob | Post Jobs | أعلن عن وظائف 
home | Home | الرئيسية 
my_jobs | My Jobs | وظائفنا 
your_role | Your role with us: - | دورك معنا 
view_map | View Map | إعرض الخريطة 
view_details | View Details | اعرض التفاصيل 
skill_set | Skill Set | مجموع المهارة 
industry_type | Sub Category | نوع الصناعة 
functional_area | Category | المجال الوظيفي 
starting_time | Starting Time | وقت الابتداء 
ending_time | Ending Time | وقت الانتهاء 
no_days | Number of Days | عدد الأيام 
hourly_fair | Hourly Fare | أجرة الساعة 
age_limit | Age Limit | تحديد العمر 
height | Height | الطول 
weight | Weight | الوزن 
no_worker | No of Vacancies | لا يوجد وظائف شاغرة 
job_details | Details of Job | تفاصيل العمل 
no_verified | Mobile Number Verified | رقم الجوال مؤكد 
number_vacancies | The number of Vacancies | عدد الوظائف الشاغرة 
business_location_name | Search Your Location | موقع المنشأة 
business_branch | Business Branch | فرع المنشأة 
attachment | Attachment | مرفقات 
accept_disability | Accept Disability | تقبل حالة الإعاقة 
last_of_education | Last Level of Education | آخر مستوى تعليمي 
about_me | About Me | معلومات عني 
contracts | Contracts | العقود 

jobs_near_me | JOBS NEAR ME | 
select_the_right_job | Select the right jobs near you that fit your skills | اخترالعمل القريب منك والمناسب لمهاراتك 
my_propsals | My proposals | عروضي 
offers | Offers | العروض 
invitations_to_interview | Job Invitations | دعوات العمل 
active_proposals | Active Proposals | العروض النشطة 
submitted_proposals | Submitted Proposals | مقترحات المقدمة 
completed_contracts | Completed Contracts | العقود المنجزة 
my_offers | My offers | عروضي 
years | year(s) | سنوات 
submit_proposal | Submit Proposal | اعتمد العرض 
interview | Interview | مقابلة شخصية 
close_job | Close Job | عمل قريب 
search | Search | ابحث 
employee_list | Employee List | قائمة طالبي العمل 
distance_range_from_employee | Distance range from employee | المسافة من موقع العامل 
filters | Filters | مرشحات 
create_job_post | Hire | وظف 
post_job_details_direct | Post a job to tell them about your projects | أنشئ معلومات العمل لإخبارهم عن مشروعك 
how_do_pay | How do I pay? | كيف أقوم بعملية الدفع ؟ 
how_do_pay_details | You can pay the money directly to the employee. | يمكنك دفع أجر الموظف له مباشرة 
there_is_a_problem | What if there is a problem? | ما العمل إذا كان هناك مشكلة ؟ 

there_is_a_problem_details | Even though we are not ensuring any Payment Protection, we will help you to resolve the disputes by our dispute resolution programs. | 
how_do_hourly_contracts_work | How do hourly contracts work? | كيف طريقة عمل العقود بالساعة؟ 
how_do_hourly_contracts_work_details | Before work begins, you and your freelancer agree to a certain hourly rate and weekly limit (if appropriate).We will track the time with our application for you to calculate the exact amount to be paid | بعد أن توافق أنت والعامل الذي اتفقت معه على أجر الساعة والحد الأقصى من ساعات العمل في الأسبوع (إذا كان ذلك مناسبًا) وتسجيل إجمالي المبلغ المتفق عليه (إذا كان ذلك ممكنا )، حينذاك سنقوم بتتبع حضوره وانصرافه وإنجازه للعمل من خلال تغذية المنصة بالمعلومات من قبلك. 
amount_you_would_like_to_bid | What is the amount you would like to bid for this job | ما هو المبلغ الذي ترغب في دفعه لهذا العمل 
your_profile_rate | Your Profile Rate | تقييم ملفك الشخصي 
announce_for_new_part_time_workers | Post a New Job | اطلب عمال جدد بالوقت الجزئي 
hourly_rate | Hourly Rate | المعدل بالساعة 
are_u_want_find_employee_jobs | Do you want to search for Jobs or Employees? | هل تبحث عن عمل أو عن عمال 
profile_headline | Job Title | العنوان الوظيفي 
noVacancy | Number of vacancies | عد د الشواغر 
save | Save | حفظ 
created | Created | أنشئت بتاريخ: 
updated | Updated | محدث 
message | Chat | رسالة 
hired | Hired | تم التعاقد معهم 
view | View | اعرض 
non_urgent_requests | Regular Job | طلبات غير عاجلة 
urgent_requests | Urgent Job | طلبات عاجلة 
the_part_time_jobs_announced_by_our_company | The part time jobs announced by our company | وظائف بالوقت الجزئي التي أعلنتها شركتنا 
im_not_sure | I'm Not Sure | لست متأكد 
how_it_works | HOW IT WORKS? | طريقة الاستخدام 
search_your_employee | Search Your Employee | ابحث عن موظفك 
new_applications | New Applications | تطبيقات جديدة 
invited_workers | Invited Workers | العاملون المدعوون 
hired_employee | Hire Employee | قم بتوظيف طالب العمل 
recommendations | Experts Near You | توصيات 
invite_to_job | Invite to Job | ادعو للعمل 
view_contract | View Contract | عرض العقد 
view_proposal | View Proposal | عرض الاقتراح 
active_contracts | Active Contracts | العقود النشطة 
start | Start | بداية 
job | Job | وظيفة 
starting_date | Starting Date | تاريخ البدء 
ending_date | Ending Date | تاريخ الانتهاء 
money_spent | Money Spent | صرف النقود 
time | Time | وقت 
stop | Stop | نهاية العقد 
noactiveContract | You have no active contract | ليس لديك عقد نشط 
nocompletedcontracts | You have no completed contracts | ليس لديك أي عقود مكتملة 
alltype | All Type | كل الأنواع 
starting_time | Starting Time | وقت البدء 
number_of_dates | Number of Dates | عدد التواريخ 
no_vacancies | No.Vacancies | عدد الوظائف الشاغرة 
no_hired | No.Hired | عدد من تم توظيفهم 

no_hired_employee | Completed Contracts | 
payment_verified | Verified | تم التحقق من الدفع 
experiance | Experience | الخبرة 
evaluate | Evaluate | قيم 
money_earned | Money Earned | الأموال المكتسبة 
enter_your_description_about_work | Enter Your Description About Work | أدخل وصفك للعمل 
enter_taks_name | Enter Task Name | أدخل اسم المهمة 
enter_task_description | Enter Task Description | أدخل وصف المهمة 
payment_details | Payment Details | بيانات الدفع 
card_number | Card number | رقم البطاقة 
expiration | Expiration | انتهاء الصلاحية 
name_of_card_holder | Name of card holder | اسم حامل البطاقة 
security_code | Security code | رمز الحماية 

add_your_bank_account_details | Add your bank account details | 

name_on_account | Name on account | 

enter_your_address | Enter your address | 

name_of_bank | Name of bank | 

account_number | Account number | 

account_type | Account type | 

savings_account | Savings account | 

current_account | Current account | 

Branch | branch | 
settings | Settings | إعدادات 
wallet | Wallet | المحفظة 
password_security | Password & Security | كلمة المرور والأمن 
billing_methods | Billing methods | طرق الفوترة 
bank_details | Bank details | التفاصيل المصرفية 
notification_settings | Notification settings | إعدادات الإشعار 

my_info | My info | 
app_settings | App settings | إعدادات التطبيقات 
company_info | Company info | معلومات الشركة 
add_billing_method | Add billing method | إضافة طريقة الفوترة 
add_method | Add method | إضافة طريقة 
you_have_not_set_up | You have not set up any billing methods yet | لم تقم بإعداد أي طرق للفوترة بعد 
set_up_your_billing_methods | Set up your billing methods so you will be able to hire right away when you are ready | قم بإعداد طرق الفوترة الخاصة بك حتى تتمكن من التوظيف فورًا عندما تكون جاهزا 
your_wallet_balance | Your wallet balance | رصيد المحفظة الخاص بك 
add_money | Add Money | إضافة مبلغ في الرصيد 
deposit | Deposit | الوديعة 
status | Status | الحالة 
comment | Comment | تعليق 
withdraw_money | Withdraw Money | سحب النقود 
time_zone | Time zone | وحدة زمنية 
enter_time_zone | Enter time tone | أدخل المنطقة الزمنية 
update | Update | تحديث 
Notification_settings | Notification settings | إعدادات الإشعار 
messages | Chats | رسائل 
show_notification_for | Show notification for | إظهار الإخطار لـ 
Send_email_unread | Send an email with unread activity for | إرسال بريد إلكتروني يحتوي على نشاط غير مقروء لـ 
other_upparttime_email_updates | Other Upparttime email updates | تحديثات البريد الإلكتروني الأخرى في Babkrim 
about_employer | About Employer | حول صاحب العمل 
about_employee | About Employee | حول العامل 
total_money_spent_uppart | Money Spent | مجموع المبالغ المصروفة 
total_jobs | Total Jobs | مجموع الأعمال 
location | Location | الموقع 
other_jobs_by_this_employer | Other jobs by this employer | الأعمال الأخرى لدى صاحب العمل الخاص به 
address1 | Address Line 1 | خط عنوان 1 
address2 | Address Line 2 | خط عنوان 2 
What is Up part-time? | What is Upparttime? | سؤال: ما هو باب كريم Babkrim 
What is Up part-time_ans | Upparttime is an online job search platform that operates in a unique model best suited for both Employers and JobSeekers. We strive caters to the unique employment needs of both aspiring Job seekers and prospective Employers. Whether you are a Jobseeker or an Employer, at Upparttimewe make the entire hiring process faster as well as easier like never before.  Our online tools are easy to use and transparent, thus making the process of hiring uncomplicated both for recruiters and applicants | في باب كريم ، نجعل عملية التوظيف بأكملها ,العمل بالوقت الجزئي أسرع وأسهل من أي وقت مضى. أدواتنا عبر الإنترنت سهلة الاستخدام وشفافة 
What types of Profiles Up part-time have? | What types of profiles Upparttime have? | ما هي أنواع المهن التي تقبل العمل بدوام جزئي في التطبيق ؟ 
ans2 | At Upparttime you will find a wide range of Profiles in terms of educational qualifications and skills, functional area, years of professional experience, preferences, locations etc. | ستجد في باب كريم Babkrim مجموعة واسعة من الملفات الشخصية من حيث المؤهلات العلمية والمهارات 
How do I get start work through Up part-time? | How do I get start work through Upparttime? | كيف يمكنني البدء في العمل من خلال باب كريم Babkrim ؟ 
ans3 | There are a number of ways to use Up Part time to build your employee career and connect with clients. When you join UpPart time you'll have the ability to submit proposals on job listings, as well as promote the services you offer on your profile. | هناك عدد من الطرق لاستخدام باب كريم Babkrim من أجل تطوير مهنتك وتحسين مهاراتك، وكيفية التواصل مع العملاء الذين يرغبون في تشغيلك بيسر وسهولة. 
ques4 | How does the Upparttime work for job seekers? | كيف يتم استخدام التطبيق للباحثين عن عمل؟ 
ans4 | Registered Job Seekers can login and search the various job adverts and job categories. You will also have an on CV profile that can be searched by job advertisers and employers. | على الباحثين عن عمل تسجيل الدخول في التطبيق والبحث عن ما يناسبهم من الأعمال في مختلف إعلانات أصحاب العمل عن الوظائف وفي الفئات الوظيفية. ستتمكن من إنشاء صفحتك الخاصة والتي تستطيع كتابة سيرتك الذاتية المفصلة فيها والتي يمكن من خلالها أن تقنع أصحاب العمل بقدراتك. 
ques5 | How to connect with a client? | كيف أتصل بطالبي العمل؟ 
ans5 | There are a number of ways to connect with clients to work with messaging the client directly.Simply post a job you need to be completed and receive competitive bids from parttime employees within minutes. | جواب: هناك عدد من الطرق في التطبيق للتواصل مع طالبي العمل المناسبين - مثل الإعلان عن الوظيفة أو إرسال رسالة مباشرة إلى طالب العمل.والآن للحصول على عطاءات تنافسية من موظفين بدوام جزئي في غضون دقائق قم بنشر الأعمال التي تحتاجها من خلال تعبئة الحقول المطلوبة. 
About working | ABOUT WORKING | حول العمل من خلال التطبيق 
ABOUT HIRING | ABOUT HIRING | حول التوظيف والبحث عن عاملين 
ABOUT UP PART-TIME | ABOUT Upparttime | حول باب كريم Babkrim 
hired_offered | Hired/Offered | تم التعاقد معهم 

featured_works1 | Featured Works (video) | 

featured_works2 | Featured Works (image) | 
featured_works | Featured Works | أعمال مميزة 
terms_of_employee | Terms of Proposal Details | شروط الموظف 
work_history_and_feedback | Work History and Feedback | تاريخ الأعمال التي قام بها وتقييمها 
his_profile_rate | His/Her profile rate | تقييم الملف الشخصي له / لها 
attachments | Attachments | مرفقات 
note_the_lower_wage | Note: The lower wage the more opportunities you have,We recommend that you choose the appropriate wage accurately | ملاحظة: كلما كان طلب الأجر أقل كلما ازدادت الفرص المتاحة أمامك 
note_we_recommend_you | Note: We recommend you to be flexible in setting times to be more likely to work. | ملاحظة : ننصحك بأن تكون مرناً في تحديد الأوقات لتكون فرص العمل أكثر. 
credit | Credit | ائتمان 
debit | Debit | مدين 
coverLetter | Cover Letter | غطاء الرسالة 
skill_sets | Skill Sets | مجموع المهارات 
distance | Distance | المسافة 
age | Age | العمر 
experience | Experience | الخبرة 
hour_of_work | Hour of Work | ساعات العمل 
hourly_wages | Hourly Wages | الأجر في الساعة 
total_money_spent | Spent | إجمالي المبالغ المصروفة 
from | From | من 
createNewJob | Create Job | أحدث عمل 
invitetothisjob | Invite | دعوة 
loadmore | Load More | حمل المزيد 
uploadedFile | Uploaded Files | حمل ملفات 
fileuploadlimit | You may attach up to 5 files under the size of 10MB even include work samples or other documents | يمكنك إرفاق ما يصل إلى 5 ملفات بحجم 10 ميغابايت حتى ولو تضمنت نماذج العمل أو المستندات الأخرى 
viewmore | View More | عرض المزيد 
fromdate | From Date | من تاريخ 
jobType | Job type | نوع العمل 
nill | Nil | لا يوجد 
cm | cm | سم 
kg | Kg | كغم 
earned | earned | حصل على 
overview | Overview | نظرة عامة 
enter_security_key | Enter Security Key | OTPأدخل الرقم السري المتغير 
resume | Resume | استأنف 
pause | Pause | توقف مؤقت 
end | End Contract | نهاية العقد 
* | ****** | ***** 
securitykey | Security Key | مفتاح الأمان 
job_rec_for_u | Job Recommendations For You | توصيات العمل بالنسبة لك 
map_view | Map View | عرض الخريطة 
all_gender | All | الكل 
male | Male | ذكر 
female | Female | أنثى 
spent | Spent | أنفق 

and | and | 
cookies | Cookies | ملفات تعريف الإرتباط 
enterEmail | Enter your email address | أدخل عنوان بريدك الالكتروني 

nevershareEmail | We'll never share your email with anyone else. | 
resetPassword | Reset your password | اعد ضبط كلمه السر 
curentPassword | Current Password | كلمة السر الحالية 
newPassword | New Password | كلمة السر الجديدة 
how_to_use | Watch How to Use | شاهد كيفية الاستخدام 
hourofwork | Hour of work | ساعات العمل 
payment_not_verified | Payment Not Verified | لم يتم التحقق من الدفع 
listview | List View | عرض القائمة 
selectjobsnearyou | Select the right jobs near you that fit your skills | اختر العمل المناسب لك والقريب منك 
jobsfindforyou | Finding employee | العثور على باحث عن عمل 
applyforjob | Apply for Job | تقدم لطلب العمل 
total_vacancy | Total vacancy | مجموع الأعمال الشاغرة 
open_vacancy | Open vacancy | افتح قائمة الأعمال الشاغرة 
accept_Offer | Accept Offer | اقبل العرض 

accept_invitation | Accept Invitation | 
notapplicable | Not Applicable | لا يمكن تطبيقه 
empq1 | Is the working period more or less than specified in the site? | هل فترة العمل أكثر أو أقل من المحدد في التطبيق 
empq2 | Is the type of work as defined in the site or different? | هل نوع العمل كما هو محدد في التطبيق أم مختلف؟ 
empq3 | Have you been treated with the humane treatment you deserve? | هل تمت معاملتك بالمعاملة الإنسانية التي تستحقها ؟ 
empq4 | Have you been fully paid? | هل استلمت أجرك كاملاً ؟ 
empq5 | Is the work environment conducive to overtime work? | هل بيئة العمل صالحة للعمل بالوقت الجزئي ؟ 
empq6 | If you have the opportunity to work again, will you work with them? | إذا واتتك الفرصة فهل ترغب العمل معهم مرة أخرى ؟ 
empq7 | How much does the work site give a sore of (10), 10 is excellent and 1 is bad? | كيف تقيم مكان العمل، امنحه درجة من (10 ) بحيث 1 سيئ و10 ممتاز 
viewless | View Less | اعرض أقل 
viewall | View All | اعرض الجميع 
urgent | Urgent Job | العاجلة 
non_urgent | Regular Job | غير عاجلة 
employer_profile_rate | Employer Profile Rate | الملف الشخصي لأصحاب العمل 
terms_of_contract | Terms of Contract | شروط العقد 
add_bank_details | Add Bank Details | إضافة تفاصيل البنك 
debit_card | Debit Card | بطاقة إئتمانية مغطاء بالكامل Debit Card 
credit_card | Credit Card | بطاقة ائتمانية Credit Card 
pay_pal | Pay Pal | Pay pal باي بال 
account_holder_name | Account Holder Name | اسم صاحب الحساب 
account_holder_number | Account Number | رقم حساب 
email_address | Email Address | عنوان البريد الكتروني 
proceed | Proceed | نفذ 
yrs | yrs | سنوات 
defaultcurrency | INR | روبية هندية 
subject | Subject | موضوع 
confirm_your_company_location | Drop the pin to the location of your company | أسقط الدبوس على مكان عملك 

yourlocation | Drop the pin to the location of your Job | 

confirm_your_job_location | Drop the pin to the location of your job | 
about1 | Upparttime is a global electronic platform that is adopted by( Almanssat aldhakyah Ltd. Company ) which its main management site in Al Khobar city in the east of Saudi Arabiaregistered with a commercial register in the Ministry of Commerce (No. 2051222086), a company specializing in systems analysis, design and programming software,and Production, ownership, management and marketing of electronic platforms with public services and the e-marketplace and has offices and agents in the Middle East and India. | باب كريم Babkrim عبارة عن منصة ألكترونية عالمية تتبع ( شركة المنصات الذكية المحدودة ) وموقع إدارتها الرئيسية في مدينة ( الخبر) شرق المملكة العربية السعودية ومسجلة بسجل تجاري في وزارة التجارة ( رقم 2051222086 ) وهي شركة متخصصة بتحليل النظم وتصميم وبرمجة البرمجيات وإنتاج وامتلاك وإدارة وتسويق المنصات الإلكترونية ذات الخدمات العامة والسوق الألكترونية ولها إلى الآن مكاتب ووكلاء في الشرق الأوسط والهند.وموقع إدارتها الرئيسية في مدينة ( الخبر) شرق المملكة العربية السعودية ومسجلة بسجل تجاري في وزارة التجارة ( رقم 2051222086 ) وهي شركة متخصصة بتحليل النظم وتصميم وبرمجة البرمجيات وإنتاج وامتلاك وإدارة وتسويق المنصات الإلكترونية ذات الخدمات العامة والسوق الألكترونية ولها إلى الآن مكاتب ووكلاء في الشرق الأوسط والهند. 
about2 | Upparttime is an electronic platform that includes one or more websites and applications (Apple and Android) and any future drivers, Organize partial and free work between employers and employees, whether employers, companies, institutions or individuals or other, Whether it is direct (on the employer's site) or indirectly via the Internet or otherwise. | باب كريم Babkrim منصة ألكترونية تشمل موقع ألكتروني أو أكثر وتطبيقات ( أبل وأندرويد ) وأي برامج تشغيل مستقبلية، تقوم بتنظيم العمل الجزئي والحر بين أصحاب العمل والعاملين، سواء كان أصحاب العمل شركات أو مؤسسات أو غيرها أو أفراد، وسواء كان العمل مباشر ( في موقع صاحب العمل ) أو غير مباشر عبر الانترنت أو غيره.أقديت Uppart timeمنصة ألكترونية تشمل موقع ألكتروني أو أكثر وتطبيقات ( أبل وأندرويد ) وأي برامج تشغيل مستقبلية، تقوم بتنظيم العمل الجزئي والحر بين أصحاب العمل والعاملين، سواء كان أصحاب العمل شركات أو مؤسسات أو غيرها أو أفراد، وسواء كان العمل مباشر ( في موقع صاحب العمل ) أو غير مباشر عبر الانترنت أو غيره. 
about22 | All parties to the process will register and then select the disciplines in which they can work. | سيقوم جميع أطراف العملية بالتسجيل ومن ثم يقوم العامل باختيار التخصصات التي يمكنه العمل فيها. 
about3 | Upparttime has provided an electronic platform that provides the organization of direct and indirect work between workers and employers in an easy, understandable and affordable manner through its websites and applications in the languages available according to the countries they serve, We will be partners to the participants with the responsibility to all the beneficiaries of our platform, while maintaining the achievement of the company's goal in terms of growing reasonable and renewable, and fair and rapid profits appropriate for this type of activity. With the provision of a sophisticated type of humor that does not disturb the seriousness we distinguish. | باب كريم Babkrim منصة ألكترونية متخصصة في توفير وتنظيم العمل الجزئي المباشر وغير المباشر بين العاملين وأصحاب العمل بتقنية سهلة ومفهومة وبتكاليف معقولة، من خلال مواقعها وتطبيقاتها باللغات المتاحة حسب الدول التي تخدمها، وسنكون شركاء للمشتركين مع تحملنا المسئولية تجاه جميع المستفيدين من منصتنا، مع المحافظة على تحقيق هدف الشركة من حيث النمو المعقول المتزايد والمتجدد، والأرباح العادلة والسريعة المناسبة لهذا النوع من النشاط. مع توفير نوع راقي من الدعابة التي لا تخل بالجدية التي نتميز بها. 
about4 | We strive to become our platform one of the most famous platforms and common in its field in the world, and we will try to be the icon of our applications are present in most smart phones as soon as possible, because we will provide (high-tech) service to all parties to the process and the easiest way. | نسعى إلى أن تصبح منصتنا الأشهر والأكثر مشتركين في مجالها على مستوى العالم، وسنسعى لأن تكون أيقونة تطبيقاتنا متواجدة في معظم الهواتف الذكية بأسرع مدة ممكنة، لأننا سنقدم ( بإذن الله ) الخدمة عالية التقنية لكل أطراف العملية وبأسهل الطرق . 
simplified_description_of_the_platform | Simplified description of the platform | وصف مبسط للمنصة 
platform_Message | Platform Message | رسالة المنصة 
ourvision | Our Vision | الرؤية 
select_filters | Select From The Filters | اختر من المرشحات 
subCategory | Sub Category | الفئة الفرعية 
disputes | Disputes | النزاعات 
contact | Tickets | اتصل 
upload_logo | Upload Company Logo | تحميل شعار الشركة 
add_company_information | ADD COMPANY INFORMATION | إضافة معلومات الشركة 
website | Website | Babkrim.com 
copyright | Copyright | حقوق النشر 
trems_employee | Terms | شروط 
dispute_assistance | DISPUTE ASSISTANCE | DISPUTE ASSISTANCE 

dispute1 | Disputes happens rarely . But in the event they do occur, Up parttime helps with dispute resolution.While the vast majority of work done on Up parttime goes smoothly for both employees & employers, it's inevitable that an occasional dispute arises. | 

dispute2 | Give your feedback or report an issue or your disputes. | 

dispute3 | Get help from our customer support team anytime, from anywhere. | 

dispute4 | Even though we are not ensuring any Payment Protection, we will help you to resolve the disputes by our dispute resolution programs. | 

dispute5 | We value your suggestions. We will try to revert at the earliest!!! | 
walletPlaceholder | Enter amount to withdraw to your bank | Enter amount to withdraw to your bank 
selectfile | Select File | حدد الملف 
nonotification | No Notification | No notification 

filled_vacancy | Filled vacancy | 
plans | Plans | Plans 

vip_plan | Gold | 

ip_plan | Silver | 

standard | Standard | 

notifications | Notifications | 

find_the_service_for_you | Find the level of service that works for you | 

plan1 | Notifications | 

plan2 | Map | 

plan3 | Monthly updates | 

plan4 | Dedicated account management | 

plan5 | Group chat | 

select | Select | 

about_job | About Job | 

approve_proposal | Approve Proposal | 

approve_invitation | Approve Invitation | 

approve | Approve | 

reject | Reject | 
Non Urgent Request | Regular Job | طلبات غير عاجلة 
Urgent requests | URGENT JOB | طلبات عاجلة 

urgentrequest | URGENT JOB | 

timelogs | Timelogs | 
timezone | Time Zone | Time Zone 
selecttimezone | Select Time Zone | Select Time Zone 
nohours | No.Hours | No.Hours 
write_your_message_here | Write Your Message Here | اكتب رسالتك هنا 
walletdetails | Wallet details | Wallet details 

any | Any | 

ammount | Amount | 

my_works | My Works | 

add_image_work_details | Add image of work details | 

add_videos_work_details | Add videos of work details | 

upload | Upload | 
videouploadlimit | You may attach up to 5 video under the size of 100MB | You may attach up to 5 video under the size of 50MB 
availability | Availability | Availability 
morning | Morning | Morning 
afternoon | Afternoon | Afternoon 
evening | Evening | Evening 
night | Night | Night 
weekend | Weekend | Weekend 
endjob | End Job | End Job 
cantbeundone | This cannot be undone | This Cannot be Undone 
searchlocation | Search for Location | Search for Location 
reviews | Reviews | Reviews 
withdraw_job | withdraw Job | withdraw Job 
day | Day | Day 
about_company | About Company | About Company 
editproposal | Edit Proposal | Edit Proposal 
withdrawproposal | Withdraw Proposal | Withdraw Proposal 
confirmproposal | Resubmit Proposal | Resubmit Proposal 
areyousure | Are You Sure | Are You Sure 
scancode | Scan Code to Start Job. | Scan Code to Start Job. 
ammountnot | Amount Not Available | Amount Not Available 
qrcode | Qrcode | Qrcode 
withdrawinvitation | Withdraw Invitation | Withdraw Invitation 
employees_near | Find Employees Nearby | Find Employees Nearby 
refresh | Refresh | Refresh 
recent_chat | Recent Chat | Recent Chat 
created_by | Created by | Created by 
description | Description | Description 
participants | Participants | Participants 
newrequest | New Request | New Request 
group_info | Group Info | Group Info 
exit_group | Exit Group | Exit Group 
delete_group | Delete and Exit | Delete and Exit 
create | Create | Create 
group_name | Group Name | Group Name 
required | * | * 
contactmessage | Message | Message 
withdrawcontract | Withdraw Contract | Withdraw Contract 
images | Images | Images 
videos | Videos | Videos 
pls_selct_mark | Please select us on the following with 1 being lowest and 10 being the highest. | Please select us on the following with 1 being lowest and 10 being the highest. 
invoice | Invoice | Invoice 
basic_fare | Basic fare | Basic fare 
total_hourly_fare | Total Hourly Fare | Total Hourly Fare 
additional_charges | Additional Charges | Additional Charges 
item | Item | Item 
qty | Qty | Qty 
price | Price | Price 
related_jobs | Related Jobs | Related Jobs 
hire_employees_nearby | Hire Employees Nearby | Hire Employees Nearby 
hourly | Hourly | Hourly 
fixed | Fixed | Fixed 
wagemode | Wage Mode | Wage Mode 
minimumhour | Minimum Hour | Minimum Hour 
hr | hrs | hrs 
fixed_rate | Fixed Rate | Fixed Rate 
Show map | Show Map | Show Map 
hidemap | Hide Map | Hide Map 
fixedfair | Fixed Fare | Fixed Fare 
no_woring_hours | Min Hours/Day | Min Hours/Day 
education | Education | Education 
download | Download | Download 
show_calender | Time Sheet | Time Sheet 
hide_calender | Hide Calendar | Hide Calendar 
send_invoice | Send Invoice | Send Invoice 
aditionalfare | Additional Hourly Fare | Additional Hourly Fare 
announced_jobs | Announced Jobs | Announced Jobs 
download_invoice | Download Invoice | Download Invoice 
employee_serach | Employee Search | Employee Search 
welcome_back | Welcome Back | Welcome Back 
contractcompletedhelptext | Your job has been completed.
Waiting for invoice | Your job has been completed.
Waiting for invoice 
lead_board | Leader Board | Leader Board 
profiletitle | Profile Title | Profile Title 
your_rank | Your Rank | Your Rank 
forgot_pwd | Forgot Password | Forgot Password 
employeecontractcompletedhelptext | Send invoice to complete contract | Send invoice to complete contract 
basefaretext | This is base fare only. Final fare may changed after finishing the contract | This is base fare only. Final fare may changed after finishing the contract 
track | Track | Track 
worked | Worked | Worked 
basefare | Base Fare | Base Fare 
totalfare | Total Fare | Total Fare 
employerType | Employer Type | Employer Type 
company | Company | Company 
individual | Individual | Individual 
webSite | Web Site | Web Site 
addyourdetails | ADD YOUR DETAILS | ADD YOUR DETAILS 
addyourjoblocation | ADD JOB LOCATION | ADD JOB LOCATION 
redirecthelptext | Please click refresh button after verification,if you are not automatically redirected. | Please click refresh button after verification,if you are not automatically redirected. 
duration | Duration | Duration 
estimatedspent | Estimated Spent | Estimated Spent 
estimatedspentafter | Estimated Spent After | Estimated Spent After 
upto | Up to | Up to 
estimatedearnings | Estimated Earnings | Estimated Earnings 
estimatedearningsafter | Estimated EarningsAfter | Estimated EarningsAfter 
advanced_options | Have More Specification? | Have More Specification? 
plzpay | Please Pay | Please Pay 
plzcollect | Please Collect | Please Collect 
starting | Starting On | Starting On 
vacancies | Vacancies | Vacancies 
fullname | Full Name | Full Name 
select_your_location | Select Your location | Select Your location 
add_new_address | Add New Address | Add New Address 
add | Add | Add 
jobpostedon | Job Posted | Job Posted 
confirmjoblocation | Confirm Job Location | Confirm Job Location 
commentemployer | Comment By Employer | Comment By Employer 
add_language_skill | Add Language Skill | Add Language Skill 
weak | Weak | Weak 
medium | Medium | Medium 
strong | Strong | Strong 
conversation | conversation | conversation 
randw | Read & Write | Read & Write 
door_number | Door number / House name | Door number / House name 
locality | Locality / Area | Locality / Area 
waiting_for_confirmation | Thank you for registering with Upparttime! | Thank you for registering with Upparttime! 
please_wait_until | We are verifying your details to serve better. Please sit back and relax, our team will reach you shortly. | We are verifying your details to serve better. Please sit back and relax, our team will reach you shortly. 
contactinformation | If you have any queries please drop a mail to hello@Upparttime.com or call us +91 7511 184 184 (9 AM - 5 PM IST) | If you have any queries please drop a mail to hello@upparttime.com or call us +91 7511 184 184 (9 AM - 5 PM IST) 
jobcreatedon | Job Created | Job Created 
budgetwas | Budget | Budget 
submitproposalon | Submited Proposal | Submited Proposal 
gotinvitation | You Were Invited | You Were Invited 
proposalamountwas | Proposal | Proposal 
yougotoffer | You have an offer | You have an offer 
offer | Offer | Offer 
gotproposalon | Employee Applied | Employee Applied 
gotinvitationapprove | Invitation Approved | Invitation Approved 
yougotofferapprove | Offer Approved | Offer Approved 
profilerate | Profile Rate | Profile Rate 
proposalrate | Proposal Rate | Proposal Rate 
contractstart | Start Contract | Start Contract 
endcontract | End Contract | End Contract 
wages | Wages | Wages 
address | Address | Address 
landmark | Landmark | Landmark 
Ok | Ok | Ok 
Cancel | Cancel | Cancel 
noemployeefoundforjob | No Employee Found For Your Job. | No Employee Found For Your Job. 
doyouwantto | Do You Want To | Do You Want To 
retry | Retry | Retry 
makeitpublic | Make as public | Make as public 
employeefoundforjob | Employee Found For Your Job. | Employee Found For Your Job. 
makepublictooltip | This job will show in the public job list and employee can search and apply. | This job will show in the public job list and employee can search and apply. 

startnavigation | Start Navigation | 

arrived | Arrived | 
user_name_mob | Mobile/Email | Mobile/Email 
jobmode | Job Mode | Job Mode 
onsite | Onsite | Onsite 
offsite | Online | Online 
success | Success | Success 
danger | Danger | Danger 
inr | INR | INR 
plzprovideanitem | Please provide an item. | Please provide an item. 
uptoxhrs | Up to {{hrs}} hrs | Up to {{hrs}} hrs 
otphasbeensentto | OTP has been send to | OTP has been send to 
networkerror | network error | network error 
level1EmailExists | You are already registered with this email address.Please click here to login.If you forgot your password.Please reset it here. | You are already registered with this email address.Please click here to login.If you forgot your password.Please reset it here. 
level1EmailInvalid | Invalid email. | Invalid email. 
level1EmailLong | Email is too longer than 50 characters. | Email is too longer than 50 characters. 
level1FullnameLong | Full name is too longer than 50 characters. | Full name is too longer than 50 characters. 
level1FullnameInvalid | Please provide a valid full name. | Please provide a valid full name. 
level1MobileInvalid | Only digits are allowed for mobile number. | Only digits are allowed for mobile number. 
invalidMobile | Please provide a valid mobile number. | Please provide a valid mobile number. 
level1MobileLong | Mobile number is too longer than 15 characters. | Mobile number is too longer than 15 characters. 
level1PasswordInvalid | Password between 6-20 character. | Password between 6-20 character. 
level1PasswordNotMatch | Passwords did not match. | Passwords did not match. 
companyNameInvalid | Please provide a valid company name. | Please provide a valid company name. 
companyNameLong | Company name too long than 50 characters. | Company name too long than 50 characters. 
companyWebsieInvalid | Please provide a valid website address. | Please provide a valid website address. 
companyWebsiteLong | Website name too long than 50 characters. | Website name too long than 50 characters. 
companyEmailInvalid | Invalid company email. | Invalid company email. 
companyEmailLong | Company email too long than 50 characters. | Company email too long than 50 characters. 
companyPhoneInvalid | Please provide a valid phone number. | Please provide a valid phone number. 
companyPhoneLong | Phone number too long than 15 characters. | Phone number too long than 15 characters. 
companyMobileInvalid | Only digits are allowed for company mobile number. | Only digits are allowed for company mobile number. 
companyMobileLong | Company mobile number too long than 15 characters. | Company mobile number too long than 15 characters. 
companyZipInvalid | Please provide a valid zip code. | Please provide a valid zip code. 
companyZipLong | Zip code is too longer than 15 characters. | Zip code is too longer than 15 characters. 
companyPoboxInvalid | Please provide a valid P.O.Box number. | Please provide a valid P.O.Box number. 
companyPoboxLong | P.O.Box Number is too longer than 15 characters. | P.O.Box Number is too longer than 15 characters. 
managerFnameInvalid | Please provide a valid manager first name. | Please provide a valid manager first name. 
managerFnameLong | Manager first name is too longer than 50 characters. | Manager first name is too longer than 50 characters. 
managerMnameInvalid | Please provide a valid manager middle name. | Please provide a valid manager middle name. 
managerMnameLong | Manager middle name is too longer than 50 characters. | Manager middle name is too longer than 50 characters. 
managerLnameInvalid | Please provide a valid manager last name. | Please provide a valid manager last name. 
managerLnameLong | Manager last name is too longer than 50 characters. | Manager last name is too longer than 50 characters. 
managerPositionInvalid | Please provide a valid manager position. | Please provide a valid manager position. 
managerPositionLong | Manager position is too longer than 50 characters. | Manager position is too longer than 50 characters. 
managerMobileInvalid | Only digits are allowed for manager mobile number. | Only digits are allowed for manager mobile number. 
managerMobileLong | Manager mobile number is too longer than 15 characters. | Manager mobile number is too longer than 15 characters. 
managerPhoneInvalid | Only digits are allowed for manager phone number. | Only digits are allowed for manager phone number. 
managerPhoneLong | Manager phone number is too longer than 15 characters. | Manager phone number is too longer than 15 characters. 
managerEmailInvalid | Invalid manager email. | Invalid manager email. 
managerEmailLong | Manager email is too longer than 50 characters. | Manager email is too longer than 50 characters. 
inavalidEmail | Invalid email. | Invalid email. 
companyLocation | Please provide company location. | Please provide company location. 
noProfileImage | Please upload a profile image. | Please upload a profile image. 
lastnameInvalid | Please provide a valid last name. | Please provide a valid last name. 
addressLine1Invalid | Please provide a valid address line 1. | Please provide a valid address line 1. 
genderInvalid | Please select gender | Please select gender 
nationalityInvalid | Please select nationality | Please select nationality 
dobInvalid | Please provide a valid DOB.. | Please provide a valid DOB.. 
heightInvalid | Please provide a valid height value (50.00 Cm-250.00 Cm). | Please provide a valid height value (50.00 Cm-250.00 Cm). 
ageInavlid | Please provide a valid age value (12 yrs-70 yrs). | Please provide a valid age value (12 yrs-70 yrs). 
experienceInavlid | Please provide a valid experience value (0 yrs-50 yrs). | Please provide a valid experience value (0 yrs-50 yrs). 
aboutme | Minimum 20 characters required for profile description. | Minimum 20 characters required for profile description. 
weight | Please provide a valid weight value (20.00 Kg-1000.00 Kg). | Please provide a valid weight value (20.00 Kg-1000.00 Kg). 
address1 | Please provide a valid address line 1. | Please provide a valid address line 1. 
address2 | Please provide a valid address line 2. | Please provide a valid address line 2. 
mothertongueInvalid | Please select mother tongue. | Please select mother tongue. 
id_typeInvalid | Please select id type. | Please select id type. 
id_noInvalid | Please provide id number. | Please provide id number. 
id_issue_dateInvalid | Please select id issue date. | Please select id issue date. 
educationInvalid | Please select education. | Please select education. 
collageInvalid | Please provide college name. | Please provide college name. 
graduation_dateInvalid | Please select graduation date. | Please select graduation date. 
r_wInvalid | Please provide reading and writing level. | Please provide reading and writing level. 
conversation_levelInvalid | Please provide conversation Level. | Please provide conversation Level. 
other_langInvalid | Please select other language. | Please select other language. 
previous_experience | Please enter valid previous experience | Please enter valid previous experience 
previous_experienceLimit | Maximum limit for previous experience is 52 yrs | Maximum limit for previous experience is 52 yrs 
wagesInvalid | Please provide a valid hourly wage. | Please provide a valid hourly wage. 
invalidWageMode | Invalid wage mode. | Invalid wage mode. 
invalidFixedRate | Please provide a valid fixed rate. | Please provide a valid fixed rate. 
invalidMinhour | Please provide minimum hour | Please provide minimum hour 
generalspecialization | Please select general specialization. | Please select general specialization. 
specialization | Please select specialization. | Please select specialization. 
morespecialization | Please select more precise specialization. | Please select more precise specialization. 
maxHrswrk | Please provide a valid maximum hour per day. | Please provide a valid maximum hour per day. 
minHrswrk | Please provide a valid minimum hour per day. | Please provide a valid minimum hour per day. 
minHrswrkGreater | Minimum hour per day can't be greater than or equals to maximum hour per day | Minimum hour per day can't be greater than or equals to maximum hour per day 
profileTitle | Minimum 10 characters required for Job title. | Minimum 10 characters required for Job title. 
currencyInvalid | Please select currency. | Please select currency. 
diabilityRequired | Please mention your type of disability. | Please mention your type of disability. 
skillInvalid | Please set your skills | Please set your skills 
countryInvalid | Please select country. | Please select country. 
stateInvalid | Please select state. | Please select state. 
cityInvalid | Please select city. | Please select city. 
radioInvalid | Please select. | Please select. 
sessionExpired | Session expired ! Please login | Session expired ! Please login 
inavlidUserName | Please enter valid username or mobile number | Please enter valid username or mobile number 
uploadInvalid | uploadInvalid | uploadInvalid 
required | This field is required. | This field is required. 
invalidOtp | Invalid OTP | Invalid OTP 
otpVerified | OTP verified | OTP verified 
emailVerify | Email verified | Email verified 
emailVerifyInvalid | Email verification failed. | Email verification failed. 
mobileInvalid | Invalid mobile number | Invalid mobile number 
inavlidPhone | Invalid phone number. | Invalid phone number. 
allRequired | Please fill all fields | Please fill all fields 
onlyDigit | Only digits allowed | Only digits allowed 
invitationAcepted | Invitation Accepted Successfully | Invitation Accepted Successfully 
proposalEdited | Your proposal has been updated. | Your proposal has been updated. 
coverLetter | Please provide comment. | Please provide comment. 
jobTitle | Minimum 6 characters required for job title. | Minimum 6 characters required for job title. 
jobDescription | Minimum 10 characters required for job description. | Minimum 10 characters required for job description. 
fromDate | From date must be in the future. | From date must be in the future. 
noOfDays | Please select number of days. | Please select number of days. 
fromTime | From time must not be empty. | From time must not be empty. 
toTime | To time must not be empty. | To time must not be empty. 
invalidInput | Minimum value is greater than maximum value | Minimum value is greater than maximum value 
serverError | Server Down | Server Down 
newjobwithinvitation | Job created and invitation has been sent to | Job created and invitation has been sent to 
attachmentLimit | Can't attach more than 5 documents | Can't attach more than 5 documents 
offeraccepted | Offer Accepted Successfully | Offer Accepted Successfully 
jobpost | Job Posted Successfully | Job Posted Successfully 
jobEdit | Job Updated. | Job Updated. 
invitationsent | Invitation Sent Successfully | Invitation Sent Successfully 
forgotPasswordEmailAlert | Email message was sent to you at | Email message was sent to you at 
passwordUpdated | Password Updated | Password Updated 
loginToContinue | Please Login to Continue. | Please Login to Continue. 
contractTitle | Title is too longer than 70 characters. | Title is too longer than 70 characters. 
networkError | Something went wrong. Try again | Something went wrong. Try again 
attachmentSizeLimit | Maximum upload size is 10 MB | Maximum upload size is 10 MB 
comentMissing | Comment is missing. | Comment is missing. 
accountHoldermissing | Account holder name cannot be empty. | Account holder name cannot be empty. 
accountNumbermissing | Account number cannot be empty. | Account number cannot be empty. 
accountPhonemissing | Phone number cannot be empty. | Phone number cannot be empty. 
jobLocation | Please provide job location. | Please provide job location. 
invalidFileType | Invalid file type. | Invalid file type. 
attachmentVideoSizeLimit | Maximum upload size is 50 MB | Maximum upload size is 50 MB 
invalidSubject | Please provide subject | Please provide subject 
invalidcomment | Please provide comment | Please provide comment 
samesecondLanguage | Second language can't be same as other language | Second language can't be same as other language 
noOfVaccancy | Please provide valid number of vacancies (1-100) | Please provide valid number of vacancies (1-100) 
invalidMinHour | Invalid minimum hour value. | Invalid minimum hour value. 
belowStandardWage | Your wage can't be less than the standard wage. | Your wage can't be less than the standard wage. 
urgentJobMessage | If this employer accept your proposal, you have to start the job within 1 hour of time. Otherwise it will affect your rating. | If this employer accept your proposal, you have to start the job within 1 hour of time. Otherwise it will affect your rating. 
doornomissing | Please provide Door number / House name. | Please provide Door number / House name. 
landmarkmissing | Please provide landmark | Please provide landmark 
new | New | New 
subtotal | Sub Total | Sub Total 
grandtotal | Grand Total | Grand Total 
youhaveXcontractrunning | You have {{x}} contract running | You have {{x}} contract running 
lastXmonthY | Last {{x}} month {{y}} | Last {{x}} month {{y}} 
workedXhrs | Worked {{x}} hrs | Worked {{x}} hrs 
gold | Gold | Gold 
silver | Silver | Silver 
bronze | Bronze | Bronze 
password&security | Password & security | Password & security 
ratecard | Rate Card | Rate Card 
budget | Budget | Budget 
minwage | Min Wage | Min Wage 
yourproposal | Your Proposal | Your Proposal 
youroffer | Your Offer | Your Offer 
fixedrate | Fixed Rate | Fixed Rate 
additional | Additional | Additional 
positivereviews | Positive Reviews | Positive Reviews 
neutralreviews | Neutral Reviews | Neutral Reviews 
negativereviews | Negative Reviews | Negative Reviews 
afterXhrs | after {{x}} hrs | after {{x}} hrs 
upparttime | Upparttime | Upparttime 
babkrim | Babkrim | Babkrim 

myprofile | My Profile | 

accountsetting | Account Setting | 

dashboard | Dashboard | 

user | Employee | 

newemployee | New Employee | 

allemployee | All Employees | 

viewcontactus | View Tickets | 

viewuser | View Employee | 

mobile | Mobile | 

actions | Actions | 

usertype | User Type | 

resolvecomment | Resolve Comment | 

left | left | 

back | Back | 

resolve | Resolve | 

profiledescription | Profile Description | 

hourlywages | Hourly Wages | 

skill | Skill | 

emailverification | Email Verification | 

mobileverification | Mobile Verification | 

userverification | User Verification | 

verification | Verification | 

uerverify | User Verification | 

error | Opps ! | 

sessionout | Session out | 

allrightreserveedby | All Rights Reserved by | 

designedby | Designed and Developed by | 

createddate | Created Date | 

allemployer | All Employer | 

viewsingleemployer | View Single Employer | 

companyname | Company Name | 

amountspent | Amount Spent | 

completedcontracts | Completed Contracts | 

totalnumberofjobs | Total Job Posted | 

viewlocation | View Location | 

createdon | Created | 

totalemployee | Total Employee | 

totalemployer | Total Employer | 

totaljobs | Total Jobs | 

latestemployee | Latest Employees | 

usersthisweek | Users this month | 

jobsposted | Jobs Posted | 
overviewoflatestmonth | Overview of last week |
jobs | Jobs | 
messageservice.userNameRequired | Username is required. | Username is required. 
messageservice.passwordRequired | Password required. | Password required. 
messageservice.success | Success ! | Success ! 
messageservice.plzLogin | Please login | Please login 
messageservice.networkerror | Network error | Network error 
messageservice.serverdown | Server down | Server down 
messageservice.noLocationAvailable | No Location Available. | No Location Available. 
messageservice.error | Opps ! | Opps ! 
messageservice.sessionout | Session out | Session out 